[gd_scene load_steps=6 format=2]

[ext_resource path="res://data/graphics/explosion.png" type="Texture" id=1]
[ext_resource path="res://data/scripts/Explosion.gd" type="Script" id=2]
[ext_resource path="res://data/sound/explosion.wav" type="AudioStream" id=3]



[sub_resource type="RectangleShape2D" id=1]

custom_solver_bias = 0.0
extents = Vector2( 10, 10 )

[sub_resource type="RectangleShape2D" id=2]

custom_solver_bias = 0.0
extents = Vector2( 10, 10 )

[node name="Explosion" type="Sprite" index="0"]

texture = ExtResource( 1 )
hframes = 14
script = ExtResource( 2 )
_sections_unfolded = [ "Animation" ]

[node name="Hitbox" type="Area2D" parent="." index="0"]

input_pickable = true
gravity_vec = Vector2( 0, 1 )
gravity = 98.0
linear_damp = 0.1
angular_damp = 1.0
monitoring = false
collision_layer = 16384
collision_mask = 0
audio_bus_override = false
audio_bus_name = "Master"
_sections_unfolded = [ "Collision" ]

[node name="CollisionShape2D" type="CollisionShape2D" parent="Hitbox" index="0"]

shape = SubResource( 1 )
_sections_unfolded = [ "Transform" ]

[node name="Heatbox" type="Area2D" parent="." index="1"]

input_pickable = true
gravity_vec = Vector2( 0, 1 )
gravity = 98.0
linear_damp = 0.1
angular_damp = 1.0
monitoring = false
collision_layer = 32768
collision_mask = 0
audio_bus_override = false
audio_bus_name = "Master"
_sections_unfolded = [ "Collision" ]

[node name="CollisionShape2D" type="CollisionShape2D" parent="Heatbox" index="0"]

shape = SubResource( 2 )

[node name="AudioStreamPlayer" type="AudioStreamPlayer" parent="." index="2"]

stream = ExtResource( 3 )
volume_db = -12.0
pitch_scale = 1.0
autoplay = false
mix_target = 0
bus = "Master"


